y0: 'x1*x3 ^ x4 ^ x0*x1*x4 ^ x5 ^ x2*x5 ^ x3*x4*x5 ^ x6 ^ x0*x6 ^ x1*x6 ^ x3*x6 ^ x2*x4*x6 ^ x1*x5*x6 ^ x4*x5*x6'
Вес:  64
Число мономов:  13
Коэффициенты Фурье:  [64  0  0  0 -8 -8 -8 -8 -8  0  0 -8  0 -8 -8  0  8  0  0 -8  0  8 -8  0
  0  0  0  0  8  8 -8 -8  0  0  0  0 -8 -8 -8 -8  8  0  0  8  0  8  8  0
  0  8 -8  0  8  0  0 -8 -8 -8  8  8  0  0  0  0 -8  8  0  0  0  0 -8  8
  8  0  8  0  0 -8  0 -8 -8  0  8  0  0  8  0 -8 -8  8  0  0  0  0  8 -8
  0  0  8 -8  8 -8  0  0  0 -8  0 -8  8  0  8  0  8  0 -8  0  0 -8  0  8
 -8  8  0  0  0  0  8 -8]
Коэффициенты Адамара-Уолша [ 128. -256. -256.    0. -256.    0.    0.    0.    0.    0. -256. -256.
 -256. -256. -256.    0.    0. -256.    0. -256. -256. -256. -256.    0.
    0.    0.    0.    0. -256.    0.    0.    0.    0.    0. -256.    0.
 -256. -256.    0.    0. -256.    0.    0.    0.    0. -256.    0. -256.
    0.    0.    0. -256. -256.    0. -256.    0. -256.    0. -256. -256.
    0.    0. -256. -256.    0.    0. -256. -256. -256. -256.    0. -256.
    0. -256. -256.    0. -256.    0. -256. -256.    0.    0.    0.    0.
 -256.    0. -256. -256.    0. -256.    0. -256. -256. -256.    0. -256.
    0. -256. -256. -256.    0. -256. -256.    0. -256. -256.    0. -256.
 -256. -256. -256. -256.    0. -256.    0.    0.    0.    0.    0.    0.
 -256. -256. -256.    0. -256.    0.    0. -256.]
Коэффициенты действительного многочлена [ 0.  1.  1. -2.  1. -2. -2.  3.  0. -1.  0.  2.  0.  2.  1. -4.  0.  0.
 -1.  2.  0.  1.  2. -4.  0.  0.  0. -2.  0. -2. -2.  6.  0. -1.  0.  1.
  0.  2.  0. -2.  1.  0. -2.  0. -2.  0.  2.  2.  0.  0.  0.  0.  0. -2.
  0.  2.  0.  0.  2.  0.  0.  2.  0. -4.  0. -1.  0.  2.  0.  2.  0. -2.
  0.  2.  0. -4.  0. -4.  0.  6.  0.  0.  0. -2.  0. -2.  0.  4.  0.  0.
  0.  4.  0.  4.  0. -8.  0.  2.  0. -2. -1. -2.  2.  0.  0. -2.  0.  4.
  2.  2. -2. -4.  0.  0.  0.  0.  0.  2. -2.  0.  0.  0.  0. -4.  0. -4.
  0.  8.]
Действительный многочлен:  'x0 + x1 + -2*x2 + x3 + -2*x4 + -2*x5 + 3*x6 + x0*x2 + 2*x0*x4 + 2*x0*x6 + x1*x2 + -4*x1*x3 + x1*x6 + 2*x2*x3 + x2*x5 + 2*x2*x6 + -4*x3*x4 + -2*x4*x6 + -2*x0*x1*x2 + -2*x0*x1*x3 + 6*x0*x1*x4 + x0*x1*x6 + x0*x2*x4 + 2*x0*x2*x6 + -2*x0*x3*x5 + x0*x3*x6 + -2*x0*x4*x6 + -2*x1*x2*x3 + 2*x1*x2*x5 + 2*x1*x2*x6 + -2*x1*x5*x6 + 2*x2*x3*x5 + 2*x2*x4*x6 + 2*x3*x4*x6 + -4*x4*x5*x6 + x0*x1*x2*x4 + 2*x0*x1*x2*x6 + 2*x0*x1*x3*x5 + -2*x0*x1*x4*x5 + 2*x0*x1*x5*x6 + -4*x0*x2*x3*x5 + -4*x0*x2*x4*x5 + 6*x0*x2*x5*x6 + -2*x0*x4*x5*x6 + -2*x1*x2*x3*x5 + 4*x1*x2*x4*x5 + 4*x1*x3*x4*x6 + 4*x1*x4*x5*x6 + -8*x2*x3*x4*x6 + 2*x2*x4*x5*x6 + -2*x0*x1*x2*x3*x4 + x0*x1*x2*x3*x5 + -2*x0*x1*x2*x3*x6 + 2*x0*x1*x2*x4*x5 + -2*x0*x1*x3*x4*x5 + 4*x0*x1*x3*x5*x6 + 2*x0*x1*x4*x5*x6 + 2*x0*x2*x3*x4*x5 + -2*x0*x2*x3*x4*x6 + -4*x0*x2*x3*x5*x6 + 2*x1*x2*x4*x5*x6 + -2*x1*x3*x4*x5*x6 + -4*x0*x1*x2*x4*x5*x6 + -4*x0*x2*x3*x4*x5*x6 + 8*x0*x1*x2*x3*x4*x5*x6'
Число мономов в действительном многочлене:  65
Степень действительного многочлена:  7
Линейные аналоги и соответствующие вероятности совпадения разрядной функции с линейной: 
(0000000: 0.0) (0000001: 0.5) (0000010: 0.0) (0000011: 0.5) (0000100: 0.0) (0000101: 0.5) (0000110: 0.0) (0000111: 0.5) (0001000: 0.0) (0001001: 0.5) (0001010: 0.0) (0001011: 0.5) (0001100: 0.0) (0001101: 0.5) (0001110: 0.0) (0001111: 0.5) (0010000: 0.0) (0010001: 0.5) (0010010: 0.0) (0010011: 0.5) (0010100: 0.0) (0010101: 0.5) (0010110: 0.0) (0010111: 0.5) (0011000: 0.0) (0011001: 0.5) (0011010: 0.0) (0011011: 0.5) (0011100: 0.0) (0011101: 0.5) (0011110: 0.0) (0011111: 0.5) (0100000: 0.0) (0100001: 0.5) (0100010: 0.0) (0100011: 0.5) (0100100: 0.0) (0100101: 0.5) (0100110: 0.0) (0100111: 0.5) (0101000: 0.0) (0101001: 0.5) (0101010: 0.0) (0101011: 0.5) (0101100: 0.0) (0101101: 0.5) (0101110: 0.0) (0101111: 0.5) (0110000: 0.0) (0110001: 0.5) (0110010: 0.0) (0110011: 0.5) (0110100: 0.0) (0110101: 0.5) (0110110: 0.0) (0110111: 0.5) (0111000: 0.0) (0111001: 0.5) (0111010: 0.0) (0111011: 0.5) (0111100: 0.0) (0111101: 0.5) (0111110: 0.0) (0111111: 0.5) (1000000: 0.0) (1000001: 0.5) (1000010: 0.0) (1000011: 0.5) (1000100: 0.0) (1000101: 0.5) (1000110: 0.0) (1000111: 0.5) (1001000: 0.0) (1001001: 0.5) (1001010: 0.0) (1001011: 0.5) (1001100: 0.0) (1001101: 0.5) (1001110: 0.0) (1001111: 0.5) (1010000: 0.0) (1010001: 0.5) (1010010: 0.0) (1010011: 0.5) (1010100: 0.0) (1010101: 0.5) (1010110: 0.0) (1010111: 0.5) (1011000: 0.0) (1011001: 0.5) (1011010: 0.0) (1011011: 0.5) (1011100: 0.0) (1011101: 0.5) (1011110: 0.0) (1011111: 0.5) (1100000: 0.0) (1100001: 0.5) (1100010: 0.0) (1100011: 0.5) (1100100: 0.0) (1100101: 0.5) (1100110: 0.0) (1100111: 0.5) (1101000: 0.0) (1101001: 0.5) (1101010: 0.0) (1101011: 0.5) (1101100: 0.0) (1101101: 0.5) (1101110: 0.0) (1101111: 0.5) (1110000: 0.0) (1110001: 0.5) (1110010: 0.0) (1110011: 0.5) (1110100: 0.0) (1110101: 0.5) (1110110: 0.0) (1110111: 0.5) (1111000: 0.0) (1111001: 0.5) (1111010: 0.0) (1111011: 0.5) (1111100: 0.0) (1111101: 0.5) (1111110: 0.0) (1111111: 0.5) 
---------------------------------------------------

y1: 'x0*x1 ^ x0*x4 ^ x2*x4 ^ x5 ^ x1*x2*x5 ^ x0*x3*x5 ^ x6 ^ x0*x2*x6 ^ x3*x6 ^ x4*x5*x6 ^ 1'
Вес:  64
Число мономов:  11
Коэффициенты Фурье:  [64  0  8  8  0  8  8  0 -8  0  0  8  0  0 -8  8  0  0  8  8  0 -8 -8  0
  0  8 -8  0  8 -8  0  0  8  0  0  8  0  0  8  8  8 -8  0  0 -8  0  0  8
  0 -8 -8  0  8  8  0  0 -8  8  0  0 -8  0  0  8  0  0  8  8  8  0  0  8
  0  8 -8  0  0  0 -8  8  0  0  8  8 -8  0  0 -8 -8  0  0  8  8 -8  0  0
 -8  0  0 -8 -8 -8  0  0  0  0 -8  8  8  0  0 -8  0  8  8  0  0  0 -8 -8
  0  0  8 -8  8  0  0 -8]
Коэффициенты Адамара-Уолша [-128.    0.    0. -256. -256.    0.    0.    0. -256. -256.    0.    0.
 -256. -256.    0. -256. -256.    0.    0. -256.    0. -256. -256. -256.
 -256. -256.    0.    0.    0.    0. -256.    0. -256.    0.    0. -256.
 -256.    0.    0.    0. -256. -256.    0.    0. -256. -256.    0. -256.
 -256.    0. -256.    0.    0. -256.    0.    0. -256. -256. -256. -256.
    0.    0.    0. -256. -256.    0.    0. -256.    0. -256. -256. -256.
 -256. -256. -256. -256.    0.    0.    0. -256. -256. -256.    0.    0.
 -256. -256.    0. -256. -256.    0. -256.    0. -256.    0. -256. -256.
    0. -256. -256.    0. -256.    0.    0.    0.    0.    0.    0.    0.
 -256. -256. -256.    0.    0.    0.    0.    0.    0.    0.    0. -256.
    0. -256. -256.    0.    0. -256. -256. -256.]
Коэффициенты действительного многочлена [ 1. -1. -1.  2.  0.  0.  0. -1.  0.  1.  0. -2.  0.  0.  0.  2.  0.  0.
  0.  0. -1.  2.  2. -2.  0.  0.  0.  0.  0. -2.  0.  0.  0.  0.  0.  0.
  0.  0.  0.  0.  0.  0.  0.  0.  0.  0.  0.  0.  0.  0.  1. -2.  0.  0.
 -2.  2.  0.  0.  0.  2.  0.  0.  0.  0.  0.  0.  0.  0. -1.  2.  2. -2.
  0.  0.  1.  0.  0. -2. -2.  2.  0.  1.  0. -2.  2. -4. -4.  6.  0. -2.
  0.  2.  0.  4.  2. -4. -1.  2.  2. -4.  2. -4. -4.  6.  0. -2. -2.  4.
  0.  4.  4. -8.  0. -2. -2.  6. -2.  4.  6. -8.  0.  4.  2. -8.  0. -4.
 -4.  8.]
Действительный многочлен:  '1 + x0 + x1 + 2*x2 + x6 + x0*x2 + -2*x0*x4 + 2*x1*x3 + x2*x4 + 2*x2*x5 + 2*x2*x6 + -2*x3*x4 + -2*x0*x1*x2 + x1*x3*x6 + -2*x1*x4*x5 + -2*x2*x3*x4 + 2*x2*x3*x5 + 2*x2*x5*x6 + x0*x1*x3*x4 + 2*x0*x1*x3*x5 + 2*x0*x1*x3*x6 + -2*x0*x1*x4*x5 + x0*x2*x3*x4 + -2*x0*x2*x4*x5 + -2*x0*x2*x4*x6 + 2*x0*x2*x5*x6 + x0*x3*x4*x6 + -2*x0*x4*x5*x6 + 2*x1*x2*x3*x4 + -4*x1*x2*x3*x5 + -4*x1*x2*x3*x6 + 6*x1*x2*x4*x5 + -2*x1*x2*x5*x6 + 2*x1*x3*x4*x6 + 4*x1*x4*x5*x6 + 2*x2*x3*x4*x5 + -4*x2*x3*x4*x6 + x2*x3*x5*x6 + 2*x2*x4*x5*x6 + 2*x3*x4*x5*x6 + -4*x0*x1*x2*x3*x4 + 2*x0*x1*x2*x3*x5 + -4*x0*x1*x2*x3*x6 + -4*x0*x1*x2*x4*x5 + 6*x0*x1*x2*x4*x6 + -2*x0*x1*x3*x4*x5 + -2*x0*x1*x3*x4*x6 + 4*x0*x1*x3*x5*x6 + 4*x0*x2*x3*x4*x5 + 4*x0*x2*x3*x4*x6 + -8*x0*x2*x3*x5*x6 + -2*x0*x3*x4*x5*x6 + -2*x1*x2*x3*x4*x5 + 6*x1*x2*x3*x4*x6 + -2*x1*x2*x3*x5*x6 + 4*x1*x2*x4*x5*x6 + 6*x1*x3*x4*x5*x6 + -8*x2*x3*x4*x5*x6 + 4*x0*x1*x2*x3*x4*x6 + 2*x0*x1*x2*x3*x5*x6 + -8*x0*x1*x2*x4*x5*x6 + -4*x0*x2*x3*x4*x5*x6 + -4*x1*x2*x3*x4*x5*x6 + 8*x0*x1*x2*x3*x4*x5*x6'
Число мономов в действительном многочлене:  64
Степень действительного многочлена:  7
Линейные аналоги и соответствующие вероятности совпадения разрядной функции с линейной: 
(0000000: 0.0) (0000001: 0.5) (0000010: 0.0) (0000011: 0.5) (0000100: 0.0) (0000101: 0.5) (0000110: 0.0) (0000111: 0.5) (0001000: 0.0) (0001001: 0.5) (0001010: 0.0) (0001011: 0.5) (0001100: 0.0) (0001101: 0.5) (0001110: 0.0) (0001111: 0.5) (0010000: 0.0) (0010001: 0.5) (0010010: 0.0) (0010011: 0.5) (0010100: 0.0) (0010101: 0.5) (0010110: 0.0) (0010111: 0.5) (0011000: 0.0) (0011001: 0.5) (0011010: 0.0) (0011011: 0.5) (0011100: 0.0) (0011101: 0.5) (0011110: 0.0) (0011111: 0.5) (0100000: 0.0) (0100001: 0.5) (0100010: 0.0) (0100011: 0.5) (0100100: 0.0) (0100101: 0.5) (0100110: 0.0) (0100111: 0.5) (0101000: 0.0) (0101001: 0.5) (0101010: 0.0) (0101011: 0.5) (0101100: 0.0) (0101101: 0.5) (0101110: 0.0) (0101111: 0.5) (0110000: 0.0) (0110001: 0.5) (0110010: 0.0) (0110011: 0.5) (0110100: 0.0) (0110101: 0.5) (0110110: 0.0) (0110111: 0.5) (0111000: 0.0) (0111001: 0.5) (0111010: 0.0) (0111011: 0.5) (0111100: 0.0) (0111101: 0.5) (0111110: 0.0) (0111111: 0.5) (1000000: 0.0) (1000001: 0.5) (1000010: 0.0) (1000011: 0.5) (1000100: 0.0) (1000101: 0.5) (1000110: 0.0) (1000111: 0.5) (1001000: 0.0) (1001001: 0.5) (1001010: 0.0) (1001011: 0.5) (1001100: 0.0) (1001101: 0.5) (1001110: 0.0) (1001111: 0.5) (1010000: 0.0) (1010001: 0.5) (1010010: 0.0) (1010011: 0.5) (1010100: 0.0) (1010101: 0.5) (1010110: 0.0) (1010111: 0.5) (1011000: 0.0) (1011001: 0.5) (1011010: 0.0) (1011011: 0.5) (1011100: 0.0) (1011101: 0.5) (1011110: 0.0) (1011111: 0.5) (1100000: 0.0) (1100001: 0.5) (1100010: 0.0) (1100011: 0.5) (1100100: 0.0) (1100101: 0.5) (1100110: 0.0) (1100111: 0.5) (1101000: 0.0) (1101001: 0.5) (1101010: 0.0) (1101011: 0.5) (1101100: 0.0) (1101101: 0.5) (1101110: 0.0) (1101111: 0.5) (1110000: 0.0) (1110001: 0.5) (1110010: 0.0) (1110011: 0.5) (1110100: 0.0) (1110101: 0.5) (1110110: 0.0) (1110111: 0.5) (1111000: 0.0) (1111001: 0.5) (1111010: 0.0) (1111011: 0.5) (1111100: 0.0) (1111101: 0.5) (1111110: 0.0) (1111111: 0.5) 
---------------------------------------------------

y2: 'x0 ^ x0*x3 ^ x2*x3 ^ x1*x2*x4 ^ x0*x3*x4 ^ x1*x5 ^ x0*x2*x5 ^ x0*x6 ^ x0*x1*x6 ^ x2*x6 ^ x4*x6 ^ 1'
Вес:  64
Число мономов:  12
Коэффициенты Фурье:  [64  0  0  0  8 -8  0  0  8  0 -8  0 -8  0  0  8  0  8  8  0  8  0  8  0
 -8 -8  0  0  8 -8 -8 -8  0  8 -8  0  8  0 -8  0  0  0  8 -8  0  0  0  0
  0  0  0  0  8 -8  0  0  0 -8  0  8  0 -8  8  0  8  8  8  8  0  0  8 -8
  0  8  0  8  0  8  8  0  8  0  0  8  0 -8  0 -8  0  0  8 -8  0  0  0  0
  8  0  0 -8  0 -8  0  8  8  8  0  0 -8  8 -8 -8  8  8 -8 -8  0  0 -8  8
 -8  0 -8  0  8  0  0  8]
Коэффициенты Адамара-Уолша [-128. -256. -256. -256. -256.    0. -256.    0. -256. -256. -256. -256.
 -256.    0. -256.    0. -256.    0. -256.    0. -256. -256. -256. -256.
    0. -256.    0. -256.    0.    0.    0.    0. -256. -256.    0.    0.
 -256.    0.    0. -256. -256. -256.    0.    0. -256.    0.    0. -256.
 -256.    0.    0. -256.    0.    0. -256. -256.    0. -256. -256.    0.
 -256. -256.    0.    0.    0. -256.    0. -256.    0.    0.    0.    0.
 -256.    0. -256.    0.    0.    0.    0.    0.    0.    0. -256. -256.
    0. -256. -256.    0.    0.    0. -256. -256. -256.    0.    0. -256.
    0.    0. -256. -256.    0. -256. -256.    0. -256. -256.    0.    0.
    0. -256. -256.    0.    0. -256.    0. -256. -256. -256. -256. -256.
    0. -256.    0. -256.    0.    0.    0.    0.]
Коэффициенты действительного многочлена [ 1.  0.  0.  0.  0. -1.  0.  0.  0.  0.  0.  0.  0.  0.  0.  0.  0. -1.
  0.  0.  0.  2.  0.  0. -1.  2.  0.  0.  0. -2.  0.  0.  0.  0. -1.  0.
  0.  0.  0.  2.  0.  0.  0.  0.  0.  0.  0.  0.  0.  0.  0.  2. -1.  0.
  2. -4.  0.  0.  2. -4.  2.  0. -4.  4. -1.  1.  0.  0.  0.  0.  0.  0.
  1. -2.  0.  0. -1.  2.  0.  0.  0.  0.  1.  0.  0.  0.  0. -2.  0.  0.
  0.  0.  2. -2. -2.  4.  0. -1.  2.  0.  0.  2.  0. -4.  0.  2. -2.  0.
  0. -2.  2.  0.  0.  2. -2. -2.  2. -4. -2.  8.  0. -2.  0.  4. -4.  4.
  4. -8.]
Действительный многочлен:  '1 + x4 + x1*x5 + 2*x2*x5 + x3*x5 + 2*x3*x6 + -2*x0*x1*x2 + x0*x2*x3 + 2*x0*x3*x5 + 2*x1*x4*x5 + x1*x4*x6 + 2*x2*x3*x4 + -4*x2*x3*x5 + 2*x2*x4*x6 + -4*x2*x5*x6 + 2*x3*x4*x5 + -4*x3*x5*x6 + 4*x4*x5*x6 + x0*x1*x2*x3 + x0*x1*x2*x4 + x0*x1*x4*x6 + -2*x0*x1*x5*x6 + x0*x2*x3*x6 + 2*x0*x2*x4*x5 + x0*x3*x5*x6 + -2*x1*x2*x4*x5 + 2*x1*x3*x5*x6 + -2*x1*x4*x5*x6 + -2*x2*x3*x4*x5 + 4*x2*x3*x4*x6 + x2*x4*x5*x6 + 2*x3*x4*x5*x6 + 2*x0*x1*x2*x3*x6 + -4*x0*x1*x2*x4*x6 + 2*x0*x1*x3*x4*x5 + -2*x0*x1*x3*x4*x6 + -2*x0*x2*x3*x4*x5 + 2*x0*x2*x3*x4*x6 + 2*x0*x3*x4*x5*x6 + -2*x1*x2*x3*x4*x5 + -2*x1*x2*x3*x4*x6 + 2*x1*x2*x3*x5*x6 + -4*x1*x2*x4*x5*x6 + -2*x1*x3*x4*x5*x6 + 8*x2*x3*x4*x5*x6 + -2*x0*x1*x2*x3*x4*x6 + 4*x0*x1*x2*x4*x5*x6 + -4*x0*x1*x3*x4*x5*x6 + 4*x0*x2*x3*x4*x5*x6 + 4*x1*x2*x3*x4*x5*x6 + -8*x0*x1*x2*x3*x4*x5*x6'
Число мономов в действительном многочлене:  51
Степень действительного многочлена:  7
Линейные аналоги и соответствующие вероятности совпадения разрядной функции с линейной: 
(0000000: 0.0) (0000001: 0.5) (0000010: 0.0) (0000011: 0.5) (0000100: 0.0) (0000101: 0.5) (0000110: 0.0) (0000111: 0.5) (0001000: 0.0) (0001001: 0.5) (0001010: 0.0) (0001011: 0.5) (0001100: 0.0) (0001101: 0.5) (0001110: 0.0) (0001111: 0.5) (0010000: 0.0) (0010001: 0.5) (0010010: 0.0) (0010011: 0.5) (0010100: 0.0) (0010101: 0.5) (0010110: 0.0) (0010111: 0.5) (0011000: 0.0) (0011001: 0.5) (0011010: 0.0) (0011011: 0.5) (0011100: 0.0) (0011101: 0.5) (0011110: 0.0) (0011111: 0.5) (0100000: 0.0) (0100001: 0.5) (0100010: 0.0) (0100011: 0.5) (0100100: 0.0) (0100101: 0.5) (0100110: 0.0) (0100111: 0.5) (0101000: 0.0) (0101001: 0.5) (0101010: 0.0) (0101011: 0.5) (0101100: 0.0) (0101101: 0.5) (0101110: 0.0) (0101111: 0.5) (0110000: 0.0) (0110001: 0.5) (0110010: 0.0) (0110011: 0.5) (0110100: 0.0) (0110101: 0.5) (0110110: 0.0) (0110111: 0.5) (0111000: 0.0) (0111001: 0.5) (0111010: 0.0) (0111011: 0.5) (0111100: 0.0) (0111101: 0.5) (0111110: 0.0) (0111111: 0.5) (1000000: 0.0) (1000001: 0.5) (1000010: 0.0) (1000011: 0.5) (1000100: 0.0) (1000101: 0.5) (1000110: 0.0) (1000111: 0.5) (1001000: 0.0) (1001001: 0.5) (1001010: 0.0) (1001011: 0.5) (1001100: 0.0) (1001101: 0.5) (1001110: 0.0) (1001111: 0.5) (1010000: 0.0) (1010001: 0.5) (1010010: 0.0) (1010011: 0.5) (1010100: 0.0) (1010101: 0.5) (1010110: 0.0) (1010111: 0.5) (1011000: 0.0) (1011001: 0.5) (1011010: 0.0) (1011011: 0.5) (1011100: 0.0) (1011101: 0.5) (1011110: 0.0) (1011111: 0.5) (1100000: 0.0) (1100001: 0.5) (1100010: 0.0) (1100011: 0.5) (1100100: 0.0) (1100101: 0.5) (1100110: 0.0) (1100111: 0.5) (1101000: 0.0) (1101001: 0.5) (1101010: 0.0) (1101011: 0.5) (1101100: 0.0) (1101101: 0.5) (1101110: 0.0) (1101111: 0.5) (1110000: 0.0) (1110001: 0.5) (1110010: 0.0) (1110011: 0.5) (1110100: 0.0) (1110101: 0.5) (1110110: 0.0) (1110111: 0.5) (1111000: 0.0) (1111001: 0.5) (1111010: 0.0) (1111011: 0.5) (1111100: 0.0) (1111101: 0.5) (1111110: 0.0) (1111111: 0.5) 
---------------------------------------------------

y3: 'x1 ^ x0*x1*x2 ^ x1*x4 ^ x3*x4 ^ x0*x5 ^ x0*x1*x5 ^ x2*x3*x5 ^ x1*x4*x5 ^ x2*x6 ^ x1*x3*x6'
Вес:  64
Число мономов:  10
Коэффициенты Фурье:  [64  0 -8  0  0  0  0 -8  0 -8 -8 -8  8  0  8  8  0  8 -8  8  0  8  0  0
  0  0 -8  0  8 -8  8  0 -8 -8  0 -8 -8 -8 -8  0 -8  0  0  0  0  8  0  0
 -8  0  0  0 -8  0 -8  8 -8  8  0  8  0  0  0 -8  0  0  8  0 -8  8  8  0
 -8  0  0  0  8  0 -8  8 -8  0  0  0  0 -8  0  0  0  0  8  0  0  0  0 -8
 -8 -8  0  8  0  0  0 -8  0 -8  8  8  0 -8  0  0  0  8  8 -8 -8  0  8  8
 -8  8  0 -8  8  8 -8  0]
Коэффициенты Адамара-Уолша [ 128.    0.    0.    0.    0.    0.    0.    0.    0.    0.    0.    0.
 -256. -256. -256. -256.    0. -256.    0. -256.    0. -256.    0. -256.
    0. -256. -256.    0. -256.    0.    0. -256. -256. -256. -256. -256.
    0.    0. -256. -256. -256.    0. -256.    0. -256.    0.    0. -256.
 -256.    0. -256.    0.    0. -256. -256.    0. -256. -256.    0.    0.
 -256. -256. -256. -256.    0.    0. -256. -256.    0.    0. -256. -256.
    0.    0. -256. -256. -256. -256.    0.    0.    0. -256. -256.    0.
    0. -256. -256.    0.    0. -256.    0. -256. -256.    0. -256.    0.
 -256. -256. -256. -256.    0.    0. -256. -256. -256.    0. -256.    0.
 -256.    0.    0. -256.    0. -256.    0. -256. -256.    0.    0. -256.
    0.    0. -256. -256.    0.    0.    0.    0.]
Коэффициенты действительного многочлена [ 0.  0.  0.  0.  0.  0.  0.  0.  0.  0.  0.  0.  1.  0.  0.  0.  0.  1.
  0.  0.  0.  0.  0.  0.  0.  0.  1. -2.  0. -2. -2.  4.  1.  0.  0.  0.
 -1.  0.  1.  0.  0. -1.  0.  0.  0.  0. -2.  2.  0. -2.  0.  0.  0.  2.
  0. -2.  0.  2. -2.  2.  0.  0.  4. -4.  0.  0.  1.  0.  0.  0.  0.  0.
  0.  0.  0.  0.  0.  0. -2.  0.  0.  0.  0. -2.  0.  0.  0.  0.  0.  0.
 -2.  4.  0.  0.  4. -4.  0.  0. -1.  0.  0.  0.  0.  0.  0.  0.  0.  0.
  0.  0.  2.  0. -1.  2.  0.  2.  2. -4. -2.  4.  0. -2.  4. -4. -2.  4.
 -4.  0.]
Действительный многочлен:  'x0*x5 + x1*x5 + x4*x5 + -2*x4*x6 + -2*x0*x1*x2 + -2*x0*x1*x3 + 4*x0*x1*x4 + x0*x1*x5 + x0*x2*x5 + x0*x3*x4 + x0*x4*x5 + -2*x1*x2*x5 + 2*x1*x2*x6 + -2*x1*x3*x5 + 2*x1*x5*x6 + -2*x2*x3*x5 + 2*x2*x4*x5 + -2*x2*x4*x6 + 2*x2*x5*x6 + 4*x3*x5*x6 + -4*x4*x5*x6 + x0*x1*x2*x5 + -2*x0*x2*x4*x6 + -2*x0*x4*x5*x6 + -2*x1*x3*x4*x5 + 4*x1*x3*x4*x6 + 4*x2*x3*x4*x5 + -4*x2*x3*x4*x6 + x3*x4*x5*x6 + 2*x0*x2*x3*x4*x6 + x0*x2*x4*x5*x6 + 2*x0*x3*x4*x5*x6 + 2*x1*x2*x3*x4*x6 + 2*x1*x2*x3*x5*x6 + -4*x1*x2*x4*x5*x6 + -2*x1*x3*x4*x5*x6 + 4*x2*x3*x4*x5*x6 + -2*x0*x1*x2*x3*x4*x6 + 4*x0*x1*x2*x3*x5*x6 + -4*x0*x1*x2*x4*x5*x6 + -2*x0*x1*x3*x4*x5*x6 + 4*x0*x2*x3*x4*x5*x6 + -4*x1*x2*x3*x4*x5*x6'
Число мономов в действительном многочлене:  43
Степень действительного многочлена:  6
Линейные аналоги и соответствующие вероятности совпадения разрядной функции с линейной: 
(0000000: 0.0) (0000001: 0.5) (0000010: 0.0) (0000011: 0.5) (0000100: 0.0) (0000101: 0.5) (0000110: 0.0) (0000111: 0.5) (0001000: 0.0) (0001001: 0.5) (0001010: 0.0) (0001011: 0.5) (0001100: 0.0) (0001101: 0.5) (0001110: 0.0) (0001111: 0.5) (0010000: 0.0) (0010001: 0.5) (0010010: 0.0) (0010011: 0.5) (0010100: 0.0) (0010101: 0.5) (0010110: 0.0) (0010111: 0.5) (0011000: 0.0) (0011001: 0.5) (0011010: 0.0) (0011011: 0.5) (0011100: 0.0) (0011101: 0.5) (0011110: 0.0) (0011111: 0.5) (0100000: 0.0) (0100001: 0.5) (0100010: 0.0) (0100011: 0.5) (0100100: 0.0) (0100101: 0.5) (0100110: 0.0) (0100111: 0.5) (0101000: 0.0) (0101001: 0.5) (0101010: 0.0) (0101011: 0.5) (0101100: 0.0) (0101101: 0.5) (0101110: 0.0) (0101111: 0.5) (0110000: 0.0) (0110001: 0.5) (0110010: 0.0) (0110011: 0.5) (0110100: 0.0) (0110101: 0.5) (0110110: 0.0) (0110111: 0.5) (0111000: 0.0) (0111001: 0.5) (0111010: 0.0) (0111011: 0.5) (0111100: 0.0) (0111101: 0.5) (0111110: 0.0) (0111111: 0.5) (1000000: 0.0) (1000001: 0.5) (1000010: 0.0) (1000011: 0.5) (1000100: 0.0) (1000101: 0.5) (1000110: 0.0) (1000111: 0.5) (1001000: 0.0) (1001001: 0.5) (1001010: 0.0) (1001011: 0.5) (1001100: 0.0) (1001101: 0.5) (1001110: 0.0) (1001111: 0.5) (1010000: 0.0) (1010001: 0.5) (1010010: 0.0) (1010011: 0.5) (1010100: 0.0) (1010101: 0.5) (1010110: 0.0) (1010111: 0.5) (1011000: 0.0) (1011001: 0.5) (1011010: 0.0) (1011011: 0.5) (1011100: 0.0) (1011101: 0.5) (1011110: 0.0) (1011111: 0.5) (1100000: 0.0) (1100001: 0.5) (1100010: 0.0) (1100011: 0.5) (1100100: 0.0) (1100101: 0.5) (1100110: 0.0) (1100111: 0.5) (1101000: 0.0) (1101001: 0.5) (1101010: 0.0) (1101011: 0.5) (1101100: 0.0) (1101101: 0.5) (1101110: 0.0) (1101111: 0.5) (1110000: 0.0) (1110001: 0.5) (1110010: 0.0) (1110011: 0.5) (1110100: 0.0) (1110101: 0.5) (1110110: 0.0) (1110111: 0.5) (1111000: 0.0) (1111001: 0.5) (1111010: 0.0) (1111011: 0.5) (1111100: 0.0) (1111101: 0.5) (1111110: 0.0) (1111111: 0.5) 
---------------------------------------------------

y4: 'x0*x2 ^ x3 ^ x1*x3 ^ x1*x4 ^ x0*x1*x4 ^ x2*x3*x4 ^ x0*x5 ^ x1*x3*x5 ^ x0*x4*x5 ^ x1*x6 ^ x3*x6 ^ x0*x3*x6 ^ x5*x6 ^ 1'
Вес:  64
Число мономов:  14
Коэффициенты Фурье:  [64  0  8  0  8  0  0  0  8  8  0 -8  0  8 -8  8  0  8  0  0  0  0  0  8
  8  0  8  8 -8 -8  8  0  0  0  0 -8 -8  0  8 -8  8  8  8  0  0 -8  0  0
  0 -8  8 -8  0  0 -8  0  8  0  0  0  8 -8  0  8  8  0  8 -8  0  0  0  8
  0  8  0  0  8  8 -8  0 -8 -8  0 -8  8  0  0  0  0  0 -8  0  0  8 -8 -8
  0  8  8 -8 -8 -8  0 -8  8  0  0  0  0  0  8  0  0  0  0  8  0  8  0  0
 -8  8 -8  0 -8  0  8 -8]
Коэффициенты Адамара-Уолша [-128. -256. -256.    0. -256. -256. -256.    0.    0. -256.    0.    0.
    0. -256.    0.    0. -256. -256. -256.    0. -256. -256. -256.    0.
    0. -256.    0.    0. -256.    0. -256. -256. -256.    0. -256. -256.
    0. -256.    0.    0. -256. -256.    0. -256.    0.    0. -256.    0.
 -256.    0. -256. -256.    0. -256.    0.    0. -256. -256.    0. -256.
 -256. -256.    0. -256. -256. -256.    0. -256. -256. -256. -256.    0.
    0.    0. -256.    0.    0.    0.    0. -256.    0.    0. -256.    0.
    0.    0.    0. -256. -256. -256.    0. -256.    0.    0.    0. -256.
 -256.    0.    0.    0. -256.    0. -256. -256. -256.    0. -256. -256.
 -256.    0.    0.    0.    0. -256. -256. -256.    0. -256.    0.    0.
    0. -256.    0.    0. -256.    0.    0.    0.]
Коэффициенты действительного многочлена [ 1.  0.  0. -1.  0.  0.  0.  0. -1.  1.  0.  0.  0.  0.  0.  0.  0.  0.
  0.  0.  0.  0.  0.  0.  0.  0.  0.  0.  1. -2.  0.  2.  0. -1.  0.  2.
 -1.  2.  0. -2.  1.  0. -1.  0.  0. -2.  2.  0.  0.  0.  0.  0.  0.  0.
  0.  0.  0.  0.  0.  0.  0.  2. -2.  0.  0.  0. -1.  2.  0.  0.  1. -2.
  0. -1.  2. -2.  0.  0. -2.  4. -1.  0.  2. -2.  0.  0. -2.  4.  2.  0.
 -4.  4. -2.  2.  4. -8.  0.  0.  0. -2.  1. -2.  0.  4.  0.  0.  0.  2.
  0.  2. -2. -4.  0.  2.  0.  0.  0.  0.  0. -4. -2.  0.  2. -4.  2. -4.
  0.  8.]
Действительный многочлен:  '1 + x2 + x0*x1 + x0*x2 + x5*x6 + -2*x0*x1*x2 + 2*x0*x1*x4 + x0*x1*x6 + 2*x0*x2*x4 + x0*x2*x5 + 2*x0*x2*x6 + -2*x0*x3*x5 + x0*x3*x6 + x0*x4*x6 + -2*x1*x2*x4 + 2*x1*x2*x5 + 2*x3*x4*x6 + -2*x3*x5*x6 + x0*x1*x2*x5 + 2*x0*x1*x2*x6 + x0*x1*x3*x6 + -2*x0*x1*x4*x5 + x0*x1*x5*x6 + 2*x0*x2*x3*x4 + -2*x0*x2*x3*x5 + -2*x0*x2*x4*x6 + 4*x0*x2*x5*x6 + x0*x3*x4*x5 + 2*x0*x3*x5*x6 + -2*x0*x4*x5*x6 + -2*x1*x2*x3*x6 + 4*x1*x2*x4*x5 + 2*x1*x2*x4*x6 + -4*x1*x3*x4*x5 + 4*x1*x3*x4*x6 + -2*x1*x3*x5*x6 + 2*x1*x4*x5*x6 + 4*x2*x3*x4*x5 + -8*x2*x3*x4*x6 + -2*x0*x1*x2*x3*x4 + x0*x1*x2*x3*x5 + -2*x0*x1*x2*x3*x6 + 4*x0*x1*x2*x4*x6 + 2*x0*x1*x3*x5*x6 + 2*x0*x2*x3*x4*x5 + -2*x0*x2*x3*x4*x6 + -4*x0*x2*x3*x5*x6 + 2*x0*x3*x4*x5*x6 + -4*x2*x3*x4*x5*x6 + -2*x0*x1*x2*x3*x4*x5 + 2*x0*x1*x2*x3*x5*x6 + -4*x0*x1*x2*x4*x5*x6 + 2*x0*x1*x3*x4*x5*x6 + -4*x0*x2*x3*x4*x5*x6 + 8*x0*x1*x2*x3*x4*x5*x6'
Число мономов в действительном многочлене:  55
Степень действительного многочлена:  7
Линейные аналоги и соответствующие вероятности совпадения разрядной функции с линейной: 
(0000000: 0.0) (0000001: 0.5) (0000010: 0.0) (0000011: 0.5) (0000100: 0.0) (0000101: 0.5) (0000110: 0.0) (0000111: 0.5) (0001000: 0.0) (0001001: 0.5) (0001010: 0.0) (0001011: 0.5) (0001100: 0.0) (0001101: 0.5) (0001110: 0.0) (0001111: 0.5) (0010000: 0.0) (0010001: 0.5) (0010010: 0.0) (0010011: 0.5) (0010100: 0.0) (0010101: 0.5) (0010110: 0.0) (0010111: 0.5) (0011000: 0.0) (0011001: 0.5) (0011010: 0.0) (0011011: 0.5) (0011100: 0.0) (0011101: 0.5) (0011110: 0.0) (0011111: 0.5) (0100000: 0.0) (0100001: 0.5) (0100010: 0.0) (0100011: 0.5) (0100100: 0.0) (0100101: 0.5) (0100110: 0.0) (0100111: 0.5) (0101000: 0.0) (0101001: 0.5) (0101010: 0.0) (0101011: 0.5) (0101100: 0.0) (0101101: 0.5) (0101110: 0.0) (0101111: 0.5) (0110000: 0.0) (0110001: 0.5) (0110010: 0.0) (0110011: 0.5) (0110100: 0.0) (0110101: 0.5) (0110110: 0.0) (0110111: 0.5) (0111000: 0.0) (0111001: 0.5) (0111010: 0.0) (0111011: 0.5) (0111100: 0.0) (0111101: 0.5) (0111110: 0.0) (0111111: 0.5) (1000000: 0.0) (1000001: 0.5) (1000010: 0.0) (1000011: 0.5) (1000100: 0.0) (1000101: 0.5) (1000110: 0.0) (1000111: 0.5) (1001000: 0.0) (1001001: 0.5) (1001010: 0.0) (1001011: 0.5) (1001100: 0.0) (1001101: 0.5) (1001110: 0.0) (1001111: 0.5) (1010000: 0.0) (1010001: 0.5) (1010010: 0.0) (1010011: 0.5) (1010100: 0.0) (1010101: 0.5) (1010110: 0.0) (1010111: 0.5) (1011000: 0.0) (1011001: 0.5) (1011010: 0.0) (1011011: 0.5) (1011100: 0.0) (1011101: 0.5) (1011110: 0.0) (1011111: 0.5) (1100000: 0.0) (1100001: 0.5) (1100010: 0.0) (1100011: 0.5) (1100100: 0.0) (1100101: 0.5) (1100110: 0.0) (1100111: 0.5) (1101000: 0.0) (1101001: 0.5) (1101010: 0.0) (1101011: 0.5) (1101100: 0.0) (1101101: 0.5) (1101110: 0.0) (1101111: 0.5) (1110000: 0.0) (1110001: 0.5) (1110010: 0.0) (1110011: 0.5) (1110100: 0.0) (1110101: 0.5) (1110110: 0.0) (1110111: 0.5) (1111000: 0.0) (1111001: 0.5) (1111010: 0.0) (1111011: 0.5) (1111100: 0.0) (1111101: 0.5) (1111110: 0.0) (1111111: 0.5) 
---------------------------------------------------

y5: 'x2 ^ x0*x2 ^ x0*x3 ^ x1*x2*x3 ^ x0*x2*x4 ^ x0*x5 ^ x2*x5 ^ x4*x5 ^ x1*x6 ^ x1*x2*x6 ^ x0*x3*x6 ^ x3*x4*x6 ^ x2*x5*x6 ^ 1'
Вес:  64
Число мономов:  14
Коэффициенты Фурье:  [64  8  0  0  8  8  0 -8  0  8  0  0  0  0  8  0  8  0  8  8  0  0 -8  0
  8  0  8  8 -8 -8  0  8  0 -8  8 -8  0  0  0 -8  8  0  0  0  0  0  0  8
  8  0  0  0  8 -8  8  0  0 -8  8 -8 -8  8 -8  0  0  0  0  8  0  8 -8 -8
 -8 -8 -8  0  0  8 -8 -8  8  8  8  0  8  0  0  0  0  0  0 -8  8  0  0  0
  0  0 -8  0  8  0 -8  8  0  0  8  0  0 -8  0  0  8 -8  0  8  0 -8  0  0
 -8  8  0 -8  8  0 -8  8]
Коэффициенты Адамара-Уолша [-128. -256. -256. -256. -256. -256.    0.    0. -256. -256. -256. -256.
 -256.    0.    0. -256.    0.    0. -256.    0.    0.    0.    0. -256.
    0.    0. -256.    0.    0. -256.    0.    0. -256.    0. -256.    0.
 -256.    0.    0. -256. -256.    0. -256.    0. -256. -256.    0.    0.
    0.    0. -256.    0.    0.    0.    0. -256. -256. -256.    0. -256.
 -256.    0. -256. -256. -256. -256.    0.    0. -256. -256. -256. -256.
    0. -256. -256.    0.    0.    0.    0.    0. -256. -256. -256.    0.
    0.    0. -256.    0.    0. -256.    0.    0. -256. -256.    0. -256.
 -256.    0.    0. -256. -256.    0. -256.    0.    0.    0. -256. -256.
    0. -256.    0. -256. -256. -256. -256.    0.    0.    0. -256.    0.
 -256.    0. -256. -256.    0.    0. -256.    0.]
Коэффициенты действительного многочлена [ 1.  0.  0.  0.  0.  0. -1.  0.  0.  0.  0.  0.  0. -1.  0.  2. -1.  0.
  1. -1.  0.  0.  0.  2.  0.  0.  0.  0.  0.  2.  0. -4.  0. -1.  0.  0.
  0.  0.  0.  2.  0.  0.  0.  0.  0.  2.  0. -4.  0.  1.  0.  0.  0.  0.
  0. -2.  1.  0. -2.  2.  0. -4.  2.  4.  0.  0. -1.  0.  0.  0.  2.  0.
 -1.  1.  2. -2.  0.  0. -2.  0.  1.  0.  0.  0. -1.  0.  0. -2.  0.  0.
 -2.  2.  2. -2.  0.  4.  0.  0.  0.  2.  0.  0.  0. -4.  0.  0.  0.  0.
  0.  0.  0.  4.  0.  0.  0. -2.  0.  0.  0.  4.  0. -2.  2.  0. -2.  4.
  0. -8.]
Действительный многочлен:  '1 + x5 + x0*x6 + 2*x1*x3 + x1*x4 + x1*x6 + x2*x3 + 2*x3*x4 + 2*x0*x1*x2 + -4*x0*x1*x4 + x0*x1*x6 + 2*x0*x3*x5 + 2*x1*x2*x4 + -4*x1*x2*x6 + x1*x3*x5 + -2*x2*x3*x5 + x2*x3*x6 + -2*x2*x4*x6 + 2*x2*x5*x6 + -4*x3*x4*x6 + 2*x3*x5*x6 + 4*x4*x5*x6 + x0*x1*x2*x5 + 2*x0*x1*x3*x6 + x0*x1*x4*x6 + x0*x1*x5*x6 + 2*x0*x2*x3*x4 + -2*x0*x2*x3*x5 + -2*x0*x2*x4*x6 + x0*x3*x4*x5 + x1*x2*x3*x4 + -2*x1*x2*x4*x5 + -2*x1*x3*x4*x5 + 2*x1*x3*x4*x6 + 2*x1*x3*x5*x6 + -2*x1*x4*x5*x6 + 4*x2*x3*x4*x6 + 2*x0*x1*x2*x3*x4 + -4*x0*x1*x2*x4*x6 + 4*x0*x2*x3*x5*x6 + -2*x1*x2*x3*x4*x6 + 4*x2*x3*x4*x5*x6 + -2*x0*x1*x2*x3*x4*x6 + 2*x0*x1*x2*x3*x5*x6 + -2*x0*x1*x3*x4*x5*x6 + 4*x0*x2*x3*x4*x5*x6 + -8*x0*x1*x2*x3*x4*x5*x6'
Число мономов в действительном многочлене:  47
Степень действительного многочлена:  7
Линейные аналоги и соответствующие вероятности совпадения разрядной функции с линейной: 
(0000000: 0.0) (0000001: 0.4375) (0000010: 0.0) (0000011: 0.4375) (0000100: 0.0) (0000101: 0.4375) (0000110: 0.0) (0000111: 0.4375) (0001000: 0.0) (0001001: 0.4375) (0001010: 0.0) (0001011: 0.4375) (0001100: 0.0) (0001101: 0.4375) (0001110: 0.0) (0001111: 0.4375) (0010000: 0.0) (0010001: 0.4375) (0010010: 0.0) (0010011: 0.4375) (0010100: 0.0) (0010101: 0.4375) (0010110: 0.0) (0010111: 0.4375) (0011000: 0.0) (0011001: 0.4375) (0011010: 0.0) (0011011: 0.4375) (0011100: 0.0) (0011101: 0.4375) (0011110: 0.0) (0011111: 0.4375) (0100000: 0.0) (0100001: 0.4375) (0100010: 0.0) (0100011: 0.4375) (0100100: 0.0) (0100101: 0.4375) (0100110: 0.0) (0100111: 0.4375) (0101000: 0.0) (0101001: 0.4375) (0101010: 0.0) (0101011: 0.4375) (0101100: 0.0) (0101101: 0.4375) (0101110: 0.0) (0101111: 0.4375) (0110000: 0.0) (0110001: 0.4375) (0110010: 0.0) (0110011: 0.4375) (0110100: 0.0) (0110101: 0.4375) (0110110: 0.0) (0110111: 0.4375) (0111000: 0.0) (0111001: 0.4375) (0111010: 0.0) (0111011: 0.4375) (0111100: 0.0) (0111101: 0.4375) (0111110: 0.0) (0111111: 0.4375) (1000000: 0.0) (1000001: 0.4375) (1000010: 0.0) (1000011: 0.4375) (1000100: 0.0) (1000101: 0.4375) (1000110: 0.0) (1000111: 0.4375) (1001000: 0.0) (1001001: 0.4375) (1001010: 0.0) (1001011: 0.4375) (1001100: 0.0) (1001101: 0.4375) (1001110: 0.0) (1001111: 0.4375) (1010000: 0.0) (1010001: 0.4375) (1010010: 0.0) (1010011: 0.4375) (1010100: 0.0) (1010101: 0.4375) (1010110: 0.0) (1010111: 0.4375) (1011000: 0.0) (1011001: 0.4375) (1011010: 0.0) (1011011: 0.4375) (1011100: 0.0) (1011101: 0.4375) (1011110: 0.0) (1011111: 0.4375) (1100000: 0.0) (1100001: 0.4375) (1100010: 0.0) (1100011: 0.4375) (1100100: 0.0) (1100101: 0.4375) (1100110: 0.0) (1100111: 0.4375) (1101000: 0.0) (1101001: 0.4375) (1101010: 0.0) (1101011: 0.4375) (1101100: 0.0) (1101101: 0.4375) (1101110: 0.0) (1101111: 0.4375) (1110000: 0.0) (1110001: 0.4375) (1110010: 0.0) (1110011: 0.4375) (1110100: 0.0) (1110101: 0.4375) (1110110: 0.0) (1110111: 0.4375) (1111000: 0.0) (1111001: 0.4375) (1111010: 0.0) (1111011: 0.4375) (1111100: 0.0) (1111101: 0.4375) (1111110: 0.0) (1111111: 0.4375) 
---------------------------------------------------

y6: 'x1*x2 ^ x0*x1*x3 ^ x0*x4 ^ x1*x5 ^ x3*x5 ^ x6 ^ x0*x1*x6 ^ x2*x3*x6 ^ x1*x4*x6 ^ x0*x5*x6'
Вес:  64
Число мономов:  10
Коэффициенты Фурье:  [64 -8  0 -8  0 -8  0 -8  0 -8  0  8 -8  0  8  0 -8  0  0 -8  8  0  0 -8
  0  8 -8  0 -8  0  0 -8  0 -8 -8  0 -8  0  0 -8  0 -8  8  0  0 -8  8  0
  8  0  8  0  0 -8  0  8  0 -8  0  8  0  8  0  8  0 -8 -8  0  8  0  0  8
  0 -8  8  0  0  8 -8  0  0 -8  0 -8 -8  0  8  0  8  0 -8  0  8  0  8  0
  0 -8  0 -8  0  8  0  8  0 -8  0  8  8  0 -8  0  0  8  8  0  0  8 -8  0
 -8  0  0  8  0 -8 -8  0]
Коэффициенты Адамара-Уолша [ 128. -256.    0. -256.    0. -256.    0. -256.    0. -256. -256.    0.
    0. -256. -256.    0.    0. -256.    0. -256.    0. -256.    0. -256.
    0.    0. -256. -256.    0.    0. -256. -256.    0. -256. -256.    0.
    0.    0. -256. -256.    0. -256.    0. -256.    0.    0.    0.    0.
 -256.    0.    0. -256. -256. -256.    0.    0. -256. -256. -256. -256.
 -256.    0. -256.    0.    0. -256.    0.    0. -256.    0. -256. -256.
    0. -256. -256. -256. -256.    0.    0.    0.    0. -256.    0.    0.
 -256.    0. -256. -256.    0.    0. -256.    0. -256. -256.    0. -256.
    0.    0. -256.    0. -256.    0.    0.    0. -256. -256. -256.    0.
    0. -256.    0.    0. -256. -256.    0. -256.    0. -256. -256. -256.
    0. -256.    0.    0. -256. -256. -256.    0.]
Коэффициенты действительного многочлена [ 0.  1.  0.  0.  0.  0.  0.  0.  0.  0.  1. -2.  0.  0.  0.  0.  0.  0.
  0.  0.  0.  0.  0.  0.  0. -1.  0.  2.  0.  0.  0.  0.  0.  0.  1. -2.
  0. -1.  0.  2.  0.  0. -2.  4.  0.  0.  0. -2.  1. -2. -2.  4.  0.  2.
  0. -4.  0.  2.  2. -6.  0. -2.  0.  4.  0.  0.  0. -1.  1. -2.  0.  2.
  0.  0.  0.  2.  0.  0. -2.  0.  0.  0.  0.  0.  0.  0.  0.  0.  0.  0.
  0. -2.  0.  2.  0.  0.  0. -1.  0.  2.  0.  2. -2. -2.  1.  0.  0. -4.
 -2.  2.  4.  0.  0.  2.  0. -2. -2.  0.  4.  0. -2.  0.  0.  4.  4. -4.
 -4.  0.]
Действительный многочлен:  'x0 + x0*x3 + -2*x0*x4 + x3*x6 + 2*x4*x6 + x0*x2*x3 + -2*x0*x2*x4 + x0*x2*x6 + 2*x0*x3*x5 + -2*x0*x4*x6 + 4*x0*x5*x6 + -2*x1*x2*x6 + x1*x3*x4 + -2*x1*x3*x5 + -2*x1*x3*x6 + 4*x1*x4*x5 + 2*x1*x5*x6 + -4*x2*x3*x5 + 2*x2*x4*x5 + 2*x2*x4*x6 + -6*x2*x5*x6 + -2*x3*x4*x6 + 4*x4*x5*x6 + x0*x1*x2*x6 + x0*x1*x3*x4 + -2*x0*x1*x3*x5 + 2*x0*x1*x4*x5 + 2*x0*x2*x3*x5 + -2*x0*x2*x4*x6 + -2*x1*x3*x4*x6 + 2*x1*x4*x5*x6 + x2*x4*x5*x6 + 2*x0*x1*x2*x3*x4 + 2*x0*x1*x2*x3*x6 + -2*x0*x1*x2*x4*x5 + -2*x0*x1*x2*x4*x6 + x0*x1*x2*x5*x6 + -4*x0*x1*x3*x5*x6 + -2*x0*x1*x4*x5*x6 + 2*x0*x2*x3*x4*x5 + 4*x0*x2*x3*x4*x6 + 2*x0*x3*x4*x5*x6 + -2*x1*x2*x3*x4*x6 + -2*x1*x2*x3*x5*x6 + 4*x1*x3*x4*x5*x6 + -2*x0*x1*x2*x3*x4*x5 + 4*x0*x1*x2*x4*x5*x6 + 4*x0*x1*x3*x4*x5*x6 + -4*x0*x2*x3*x4*x5*x6 + -4*x1*x2*x3*x4*x5*x6'
Число мономов в действительном многочлене:  50
Степень действительного многочлена:  6
Линейные аналоги и соответствующие вероятности совпадения разрядной функции с линейной: 
(0000000: 0.0) (0000001: 0.5625) (0000010: 0.0) (0000011: 0.5625) (0000100: 0.0) (0000101: 0.5625) (0000110: 0.0) (0000111: 0.5625) (0001000: 0.0) (0001001: 0.5625) (0001010: 0.0) (0001011: 0.5625) (0001100: 0.0) (0001101: 0.5625) (0001110: 0.0) (0001111: 0.5625) (0010000: 0.0) (0010001: 0.5625) (0010010: 0.0) (0010011: 0.5625) (0010100: 0.0) (0010101: 0.5625) (0010110: 0.0) (0010111: 0.5625) (0011000: 0.0) (0011001: 0.5625) (0011010: 0.0) (0011011: 0.5625) (0011100: 0.0) (0011101: 0.5625) (0011110: 0.0) (0011111: 0.5625) (0100000: 0.0) (0100001: 0.5625) (0100010: 0.0) (0100011: 0.5625) (0100100: 0.0) (0100101: 0.5625) (0100110: 0.0) (0100111: 0.5625) (0101000: 0.0) (0101001: 0.5625) (0101010: 0.0) (0101011: 0.5625) (0101100: 0.0) (0101101: 0.5625) (0101110: 0.0) (0101111: 0.5625) (0110000: 0.0) (0110001: 0.5625) (0110010: 0.0) (0110011: 0.5625) (0110100: 0.0) (0110101: 0.5625) (0110110: 0.0) (0110111: 0.5625) (0111000: 0.0) (0111001: 0.5625) (0111010: 0.0) (0111011: 0.5625) (0111100: 0.0) (0111101: 0.5625) (0111110: 0.0) (0111111: 0.5625) (1000000: 0.0) (1000001: 0.5625) (1000010: 0.0) (1000011: 0.5625) (1000100: 0.0) (1000101: 0.5625) (1000110: 0.0) (1000111: 0.5625) (1001000: 0.0) (1001001: 0.5625) (1001010: 0.0) (1001011: 0.5625) (1001100: 0.0) (1001101: 0.5625) (1001110: 0.0) (1001111: 0.5625) (1010000: 0.0) (1010001: 0.5625) (1010010: 0.0) (1010011: 0.5625) (1010100: 0.0) (1010101: 0.5625) (1010110: 0.0) (1010111: 0.5625) (1011000: 0.0) (1011001: 0.5625) (1011010: 0.0) (1011011: 0.5625) (1011100: 0.0) (1011101: 0.5625) (1011110: 0.0) (1011111: 0.5625) (1100000: 0.0) (1100001: 0.5625) (1100010: 0.0) (1100011: 0.5625) (1100100: 0.0) (1100101: 0.5625) (1100110: 0.0) (1100111: 0.5625) (1101000: 0.0) (1101001: 0.5625) (1101010: 0.0) (1101011: 0.5625) (1101100: 0.0) (1101101: 0.5625) (1101110: 0.0) (1101111: 0.5625) (1110000: 0.0) (1110001: 0.5625) (1110010: 0.0) (1110011: 0.5625) (1110100: 0.0) (1110101: 0.5625) (1110110: 0.0) (1110111: 0.5625) (1111000: 0.0) (1111001: 0.5625) (1111010: 0.0) (1111011: 0.5625) (1111100: 0.0) (1111101: 0.5625) (1111110: 0.0) (1111111: 0.5625) 
---------------------------------------------------

Число мономов во всех многочленах Жегалкина: 59
Число мономов во всех действительных многочленах: 244

***Repl Closed***
